/* XPM */
static char *left_active_xpm[] = {
/* columns rows colors chars-per-pixel */
"6 6 3 1",
". c None",
"+ c #d8d8d8 s @frame_active@",
"@ c #a1a1a1 s @outline@",
/* pixels */
"@+++++",
"@+++++",
"@+++++",
"@+++++",
"@+++++",
"@+++++"
};
