/* XPM */
static char *shade_toggled_active_xpm[] = {
/* columns rows colors chars-per-pixel */
"24 26 7 1",
"/ c None",
". c #d8d8d8 s @frame_active@",
"_ c #c9c9c9 s @frame_inactive@",
"= c #c3c3c3 s @button_prelight@",
"# c #adadad s @button_pressed@",
"x c #646464 s inactive_text_color",
"X c #000000 s active_text_color",
/* pixels */
"////////////////////////",
"////////////////////////",
"...##################...",
".######################.",
".######################.",
"########################",
"########################",
"########################",
"########################",
"########################",
"########################",
"###########XX###########",
"##########XXXX##########",
"#########XXXXXX#########",
"########XXX##XXX########",
"########XX####XX########",
"########################",
"########################",
"########################",
"########################",
"########################",
"########################",
"########################",
".######################.",
".######################.",
"...##################...",
};

