/* XPM */
static char *title_2_inactive_xpm[] = {
/* columns rows colors chars-per-pixel */
"6 30 3 1",
". c None",
"+ c #c9c9c9 s @frame_inactive@",
"@ c #a1a1a1 s @outline@",
/* pixels */
"@@@@@@",
"++++++",
"++++++",
"++++++",
"++++++",
"++++++",
"++++++",
"++++++",
"++++++",
"++++++",
"++++++",
"++++++",
"++++++",
"++++++",
"++++++",
"++++++",
"++++++",
"++++++",
"++++++",
"++++++",
"++++++",
"++++++",
"++++++",
"++++++",
"++++++",
"++++++",
"++++++",
"++++++",
"++++++",
"++++++"
};
